{
  "extends": ["tslint:recommended", "tslint-config-prettier", "tslint-no-circular-imports"],
  "rules": {
    "quotemark": [true, "double"],
    "prefer-const": true,
    "variable-name": [true, "check-format", "ban-keywords", "allow-leading-underscore"],
    "no-null-keyword": true,
    "object-literal-sort-keys": false,
    "max-classes-per-file": [false, 1],
    "interface-name": [false, ""],
    "typedef": [true, "call-signature", "arrow-call-signature", "property-declaration"],
    "member-ordering": [true, { "order": "instance-sandwich" }]
  }
}
